[{"id":1,"fecha":"5/3/2019","importe":75,"latitud":-6.7761721,"longitud":111.4126837},
{"id":2,"fecha":"5/5/2019","importe":12,"latitud":-13.7543026,"longitud":-74.0667302},
{"id":3,"fecha":"4/30/2019","importe":8,"latitud":-6.6913037,"longitud":107.9679983},
{"id":4,"fecha":"8/26/2018","importe":61,"latitud":31.7284972,"longitud":-106.4899163},
{"id":5,"fecha":"11/18/2018","importe":22,"latitud":54.3817334,"longitud":18.2912258},
{"id":6,"fecha":"12/15/2018","importe":45,"latitud":14.372734,"longitud":-88.2461183},
{"id":7,"fecha":"5/9/2018","importe":6,"latitud":57.652547,"longitud":53.8103933},
{"id":8,"fecha":"2/8/2019","importe":2,"latitud":26.0172503,"longitud":43.3584284},
{"id":9,"fecha":"3/21/2019","importe":29,"latitud":47.797708,"longitud":5.2787119},
{"id":10,"fecha":"1/10/2019","importe":11,"latitud":-43.3937074,"longitud":147.2679116},
{"id":11,"fecha":"1/21/2019","importe":51,"latitud":23.12468,"longitud":113.3612},
{"id":12,"fecha":"9/5/2018","importe":92,"latitud":14.2712301,"longitud":-90.0375295},
{"id":13,"fecha":"9/1/2018","importe":4,"latitud":"-7.24562","longitud":"177.14511"},
{"id":14,"fecha":"5/22/2018","importe":8,"latitud":18.4849486,"longitud":-69.8627901},
{"id":15,"fecha":"10/16/2018","importe":66,"latitud":-2.9655267,"longitud":12.7278766},
{"id":16,"fecha":"2/22/2019","importe":62,"latitud":38.5434693,"longitud":-9.0610972},
{"id":17,"fecha":"1/4/2019","importe":40,"latitud":50.0427687,"longitud":15.8099824},
{"id":18,"fecha":"6/18/2018","importe":82,"latitud":45.7718709,"longitud":126.6701902},
{"id":19,"fecha":"5/31/2018","importe":8,"latitud":41.1768699,"longitud":61.402695},
{"id":20,"fecha":"2/6/2019","importe":76,"latitud":-7.6375159,"longitud":111.9298922},
{"id":21,"fecha":"1/28/2019","importe":9,"latitud":48.534282,"longitud":30.5234909},
{"id":22,"fecha":"10/8/2018","importe":74,"latitud":13.5570718,"longitud":-88.3494328},
{"id":23,"fecha":"12/29/2018","importe":69,"latitud":36.0174073,"longitud":139.659239},
{"id":24,"fecha":"7/17/2018","importe":24,"latitud":10.148976,"longitud":-73.960233},
{"id":25,"fecha":"6/11/2018","importe":17,"latitud":59.9050895,"longitud":10.7673005},
{"id":26,"fecha":"8/13/2018","importe":9,"latitud":53.0809114,"longitud":103.3256193},
{"id":27,"fecha":"10/27/2018","importe":85,"latitud":53.7117479,"longitud":28.4244728},
{"id":28,"fecha":"11/13/2018","importe":21,"latitud":52.4159683,"longitud":41.4278531},
{"id":29,"fecha":"9/8/2018","importe":66,"latitud":-7.0051453,"longitud":110.4381254},
{"id":30,"fecha":"9/24/2018","importe":19,"latitud":-6.9620686,"longitud":108.4854717},
{"id":31,"fecha":"1/15/2019","importe":12,"latitud":38.681707,"longitud":112.337992},
{"id":32,"fecha":"8/7/2018","importe":93,"latitud":30.069463,"longitud":104.616392},
{"id":33,"fecha":"2/16/2019","importe":90,"latitud":31.138558,"longitud":115.67779},
{"id":34,"fecha":"1/26/2019","importe":1,"latitud":-6.7062035,"longitud":111.1518552},
{"id":35,"fecha":"8/14/2018","importe":46,"latitud":22.517585,"longitud":113.39277},
{"id":36,"fecha":"6/22/2018","importe":8,"latitud":6.300757,"longitud":36.878471},
{"id":37,"fecha":"2/13/2019","importe":77,"latitud":-17.8832695,"longitud":-62.941187},
{"id":38,"fecha":"5/4/2019","importe":18,"latitud":34.329605,"longitud":108.708991},
{"id":39,"fecha":"8/12/2018","importe":3,"latitud":-6.4931733,"longitud":110.876154},
{"id":40,"fecha":"10/23/2018","importe":6,"latitud":58.5642523,"longitud":12.0657604},
{"id":41,"fecha":"10/13/2018","importe":61,"latitud":0.3391763,"longitud":-78.1222336},
{"id":42,"fecha":"3/2/2019","importe":70,"latitud":3.723827,"longitud":-75.483979},
{"id":43,"fecha":"8/23/2018","importe":51,"latitud":39.4779651,"longitud":-8.0757391},
{"id":44,"fecha":"12/7/2018","importe":96,"latitud":19.928174,"longitud":110.883743},
{"id":45,"fecha":"2/21/2019","importe":53,"latitud":14.5418789,"longitud":-91.5078771},
{"id":46,"fecha":"9/12/2018","importe":8,"latitud":11.0839714,"longitud":-71.8556507},
{"id":47,"fecha":"9/10/2018","importe":46,"latitud":55.4618616,"longitud":29.9874438},
{"id":48,"fecha":"9/9/2018","importe":1,"latitud":-9.9836173,"longitud":124.4420073},
{"id":49,"fecha":"2/3/2019","importe":41,"latitud":27.2711,"longitud":116.580186},
{"id":50,"fecha":"7/16/2018","importe":30,"latitud":57.3423349,"longitud":13.7300442},
{"id":51,"fecha":"7/30/2018","importe":5,"latitud":12.2722898,"longitud":-86.0529604},
{"id":52,"fecha":"2/24/2019","importe":36,"latitud":52.3533225,"longitud":18.7293986},
{"id":53,"fecha":"9/9/2018","importe":90,"latitud":-6.4930095,"longitud":106.3875898},
{"id":54,"fecha":"12/2/2018","importe":100,"latitud":39.8265279,"longitud":46.7655746},
{"id":55,"fecha":"4/29/2019","importe":16,"latitud":22.615932,"longitud":112.634486},
{"id":56,"fecha":"7/2/2018","importe":79,"latitud":32.387233,"longitud":81.145433},
{"id":57,"fecha":"6/2/2018","importe":57,"latitud":52.6681994,"longitud":-8.5369154},
{"id":58,"fecha":"4/23/2019","importe":92,"latitud":-0.9,"longitud":30.416667},
{"id":59,"fecha":"5/31/2018","importe":36,"latitud":33.8759864,"longitud":133.1626063},
{"id":60,"fecha":"7/26/2018","importe":46,"latitud":-7.7427496,"longitud":-35.2280343},
{"id":61,"fecha":"5/10/2018","importe":30,"latitud":7.1302807,"longitud":-3.2030756},
{"id":62,"fecha":"9/18/2018","importe":13,"latitud":22.270978,"longitud":113.576677},
{"id":63,"fecha":"6/21/2018","importe":97,"latitud":22.781631,"longitud":108.273158},
{"id":64,"fecha":"1/15/2019","importe":81,"latitud":-3.0029841,"longitud":115.9467997},
{"id":65,"fecha":"12/4/2018","importe":7,"latitud":31.637714,"longitud":119.716535},
{"id":66,"fecha":"3/2/2019","importe":68,"latitud":34.0983579,"longitud":-4.5508381},
{"id":67,"fecha":"6/3/2018","importe":81,"latitud":38.7285284,"longitud":-9.4069248},
{"id":68,"fecha":"8/12/2018","importe":41,"latitud":23.1271241,"longitud":-82.3261977},
{"id":69,"fecha":"3/18/2019","importe":43,"latitud":49.1168862,"longitud":16.5813788},
{"id":70,"fecha":"6/24/2018","importe":28,"latitud":"54.4","longitud":"23.65"},
{"id":71,"fecha":"1/13/2019","importe":59,"latitud":47.236015,"longitud":127.114832},
{"id":72,"fecha":"12/21/2018","importe":67,"latitud":40.4742778,"longitud":49.8255553},
{"id":73,"fecha":"8/31/2018","importe":21,"latitud":33.8676555,"longitud":130.8939207},
{"id":74,"fecha":"10/24/2018","importe":27,"latitud":14.8704596,"longitud":101.8322677},
{"id":75,"fecha":"5/24/2018","importe":99,"latitud":"35.65599","longitud":"35.88871"},
{"id":76,"fecha":"7/23/2018","importe":71,"latitud":-7.7520206,"longitud":110.4914674},
{"id":77,"fecha":"4/6/2019","importe":75,"latitud":60.6130236,"longitud":15.6530104},
{"id":78,"fecha":"3/20/2019","importe":47,"latitud":48.829733,"longitud":2.1177361},
{"id":79,"fecha":"12/30/2018","importe":69,"latitud":56.2270517,"longitud":15.3137401},
{"id":80,"fecha":"6/13/2018","importe":21,"latitud":"4.5557","longitud":"95.71508"},
{"id":81,"fecha":"8/2/2018","importe":94,"latitud":10.142762,"longitud":-85.454983},
{"id":82,"fecha":"3/29/2019","importe":21,"latitud":41.0787184,"longitud":-7.435408},
{"id":83,"fecha":"11/5/2018","importe":57,"latitud":57.9901314,"longitud":56.2090194},
{"id":84,"fecha":"8/8/2018","importe":77,"latitud":37.005017,"longitud":114.683863},
{"id":85,"fecha":"3/19/2019","importe":26,"latitud":"14.63752","longitud":"105.78842"},
{"id":86,"fecha":"5/21/2018","importe":35,"latitud":49.8856767,"longitud":-119.4783845},
{"id":87,"fecha":"9/18/2018","importe":57,"latitud":45.6258385,"longitud":0.0629891},
{"id":88,"fecha":"2/18/2019","importe":58,"latitud":26.58051,"longitud":114.62836},
{"id":89,"fecha":"7/25/2018","importe":60,"latitud":-21.6110027,"longitud":-55.168269},
{"id":90,"fecha":"11/14/2018","importe":64,"latitud":34.329567,"longitud":108.706272},
{"id":91,"fecha":"8/25/2018","importe":60,"latitud":48.375888,"longitud":135.5602794},
{"id":92,"fecha":"1/5/2019","importe":36,"latitud":41.8186298,"longitud":46.2781308},
{"id":93,"fecha":"5/11/2018","importe":63,"latitud":-41.172184,"longitud":-71.437354},
{"id":94,"fecha":"12/16/2018","importe":49,"latitud":-19.1813272,"longitud":-65.0008536},
{"id":95,"fecha":"8/20/2018","importe":13,"latitud":14.5769063,"longitud":120.9959319},
{"id":96,"fecha":"10/30/2018","importe":94,"latitud":35.8939566,"longitud":117.9249002},
{"id":97,"fecha":"6/20/2018","importe":51,"latitud":32.023273,"longitud":108.400024},
{"id":98,"fecha":"6/25/2018","importe":60,"latitud":49.8117449,"longitud":6.2541216},
{"id":99,"fecha":"5/24/2018","importe":1,"latitud":30.5211502,"longitud":112.8915932},
{"id":100,"fecha":"12/8/2018","importe":14,"latitud":1.1704451,"longitud":99.2037508}]
